<svg width="32" height="31" viewBox="0 0 32 31" fill="none" xmlns="http://www.w3.org/2000/svg">
<path d="M9.00049 3.85938C6.65862 3.85938 4.77295 5.74505 4.77295 8.08692V22.7845C4.77295 25.1264 6.65862 27.0121 9.00049 27.0121H16.9665V17.9608H14.5731V14.7021H16.9665V11.918C16.9665 9.73062 18.3806 7.72226 21.6382 7.72226C22.9572 7.72226 23.9325 7.84888 23.9325 7.84888L23.8558 10.892C23.8558 10.892 22.8611 10.8826 21.7757 10.8826C20.601 10.8826 20.4126 11.4239 20.4126 12.3224V14.7021H23.9492L23.7951 17.9608H20.4126V27.0121H23.6981C26.04 27.0121 27.9256 25.1264 27.9256 22.7846V8.08694C27.9256 5.74507 26.04 3.8594 23.6981 3.8594H9.00047L9.00049 3.85938Z" fill="white"/>
</svg>
