<svg width="32" height="31" viewBox="0 0 32 31" fill="none" xmlns="http://www.w3.org/2000/svg">
<path d="M28.2782 9.44555C28.1317 8.86193 27.8446 8.32971 27.4455 7.90214C27.0465 7.47458 26.5494 7.16667 26.0042 7.00923C23.9973 6.43164 15.9524 6.43164 15.9524 6.43164C15.9524 6.43164 7.90758 6.43164 5.90067 7.00616C5.35521 7.16309 4.85795 7.47082 4.45881 7.89847C4.05967 8.32611 3.77271 8.85861 3.62674 9.44247C3.08984 11.5931 3.08984 16.0786 3.08984 16.0786C3.08984 16.0786 3.08984 20.5641 3.62674 22.7116C3.92247 23.8975 4.79529 24.8315 5.90067 25.148C7.90758 25.7255 15.9524 25.7255 15.9524 25.7255C15.9524 25.7255 23.9973 25.7255 26.0042 25.148C27.1125 24.8315 27.9824 23.8975 28.2782 22.7116C28.8151 20.5641 28.8151 16.0786 28.8151 16.0786C28.8151 16.0786 28.8151 11.5931 28.2782 9.44555ZM13.3972 20.1954V11.9617L20.0581 16.0479L13.3972 20.1954Z" fill="white"/>
</svg>
